Homework 7
…
## # A tibble: 2 × 4
##   Species    Avg.Sepal.Length Avg.Sepal.Width Sample.Size
##   <fct>                 <dbl>           <dbl>       <int>
## 1 versicolor             6.48            2.99          17
## 2 virginica              6.79            3.06          39

Question 9

iris%>%
  pivot_longer(col=Sepal.Length:Petal.Width, names_to="Measure",values_to="Value")

## # A tibble: 600 × 3
##    Species Measure      Value
##    <fct>   <chr>        <dbl>
##  1 setosa  Sepal.Length   5.1
##  2 setosa  Sepal.Width    3.5
##  3 setosa  Petal.Length   1.4
##  4 setosa  Petal.Width    0.2
##  5 setosa  Sepal.Length   4.9
##  6 setosa  Sepal.Width    3  
##  7 setosa  Petal.Length   1.4
##  8 setosa  Petal.Width    0.2
##  9 setosa  Sepal.Length   4.7
## 10 setosa  Sepal.Width    3.2
## # ℹ 590 more rows
